<?xml version="1.0" encoding="UTF-8"?>
<svg viewBox="0 0 19 18" version="1.1" xmlns="http://www.w3.org/2000/svg" xmlns:xlink="http://www.w3.org/1999/xlink" class="magnifying-glass">
  <g fill="none" stroke-width="1">
    <line x1="12.5017857" y1="15.9099026" x2="18.8657467" y2="15.9099026" transform="translate(15.909903, 15.909903) rotate(45.000000) translate(-15.909903, -15.909903) "></line>
    <circle cx="8" cy="8" r="7.5"></circle>
  </g>
</svg>
