<?xml version="1.0" encoding="UTF-8"?>
<svg width="100pt" height="100pt" version="1.1" viewBox="0 0 100 100" xmlns="http://www.w3.org/2000/svg">
 <path d="m49.922 0c27.668 0 50.078 22.41 50.078 49.922 0 27.668-22.41 50.078-50.078 50.078-27.512 0-49.922-22.41-49.922-50.078 0-27.512 22.41-49.922 49.922-49.922zm-22.875 26.43h18.703v46.984h-18.703zm27.203 0h18.547v46.984h-18.547z" fill-rule="evenodd"/>
</svg>
